<?xml version="1.0" encoding="utf-8"?>
<!-- Generator: Adobe Illustrator 20.0.0, SVG Export Plug-In . SVG Version: 6.00 Build 0)  -->
<svg version="1.1" id="Capa_1" xmlns="http://www.w3.org/2000/svg" xmlns:xlink="http://www.w3.org/1999/xlink" x="0px" y="0px"
	 viewBox="0 0 12 6" enable-background="new 0 0 12 6" xml:space="preserve">
<g>
	<g>
		<path fill="#828282" d="M5.7,6l5.2-5.4c0.1-0.1,0.1-0.3,0-0.5c-0.1-0.1-0.3-0.1-0.4,0l-5,5.1l-5-5.1C0.4,0,0.2,0,0.1,0.1
			C0,0.2,0,0.2,0,0.3s0,0.1,0.1,0.2l5.2,5.4C5.4,6.1,5.6,6.1,5.7,6L5.7,6z"/>
	</g>
</g>
</svg>
