<?xml version="1.0" encoding="utf-8"?>
<!-- Generator: Adobe Illustrator 20.0.0, SVG Export Plug-In . SVG Version: 6.00 Build 0)  -->
<svg version="1.1" id="Layer_1" xmlns="http://www.w3.org/2000/svg" xmlns:xlink="http://www.w3.org/1999/xlink" x="0px" y="0px"
	 viewBox="0 0 22 22">
<ellipse style="stroke:transparent;" cx="11" cy="11" rx="8.7" ry="8.8"/>
<path style="stroke:#828282;fill:none;stroke-linecap:round;stroke-miterlimit:10;" d="M18.3,18.6c-0.9,0.9-2.1,1.6-3.3,2.1
	s-2.6,0.8-4,0.8C5.2,21.5,0.5,16.8,0.5,11S5.2,0.5,11,0.5S21.5,5.2,21.5,11c0,1.3-0.2,2.6-0.7,3.7"/>
<g>

		<line style="fill:none;stroke-width:0.8;stroke-linecap:round;stroke-miterlimit:10;" x1="6.4" y1="6.3" x2="9.8" y2="9.7"/>

		<line style="fill:none;stroke-width:0.8;stroke-linecap:round;stroke-miterlimit:10;" x1="12.4" y1="12.3" x2="15.8" y2="15.7"/>

		<line style="fill:none;stroke-width:0.8;stroke-linecap:round;stroke-miterlimit:10;" x1="15.8" y1="6.3" x2="6.4" y2="15.7"/>
</g>
<path style="fill:none;stroke:#721818;stroke-linecap:round;stroke-miterlimit:10;" d="M10.1,9.9"/>
</svg>
