<?xml version="1.0" encoding="utf-8"?>
<!-- Generator: Adobe Illustrator 20.0.0, SVG Export Plug-In . SVG Version: 6.00 Build 0)  -->
<svg version="1.1" id="Layer_1" xmlns="http://www.w3.org/2000/svg" xmlns:xlink="http://www.w3.org/1999/xlink" x="0px" y="0px"
	 viewBox="0 0 20 20" enable-background="new 0 0 20 20" xml:space="preserve">
<path fill="#FFB0B0" d="M16.833,2.167h-2c-0.583,0-1.083,0.5-1.083,1.083v2.083c0,0.583,0.5,1.083,1.083,1.083h2
	c0.583,0,1.083-0.5,1.083-1.083V3.25C17.917,2.583,17.417,2.167,16.833,2.167L16.833,2.167z M17.083,5.25
	c0,0.167-0.083,0.25-0.25,0.25h-2c-0.167,0-0.25-0.083-0.25-0.25v-2c0-0.167,0.083-0.25,0.25-0.25h2c0.167,0,0.25,0.083,0.25,0.25
	V5.25z"/>
<path fill="#828282" d="M15.75,0H4.25C1.917,0,0,1.917,0,4.333v11.333C0,18.083,1.917,20,4.25,20h11.5
	c2.333,0,4.25-1.917,4.25-4.333V4.333C20,1.917,18.083,0,15.75,0L15.75,0z M19.167,15.667c0,1.917-1.5,3.5-3.417,3.5H4.25
	c-1.917,0-3.417-1.583-3.417-3.5V8.083h5.083c-1.083,1.083-1.75,2.583-1.75,4.25c0,3.25,2.583,5.917,5.833,5.917
	s5.833-2.667,5.833-5.917c0-1.667-0.667-3.167-1.75-4.25h5.083V15.667L19.167,15.667z M15,12.333c0,2.833-2.25,5.083-5,5.083
	s-5-2.25-5-5.083S7.25,7.25,10,7.25C12.75,7.25,15,9.5,15,12.333L15,12.333z M13,7.25c-0.917-0.5-1.917-0.833-3-0.833
	S7.917,6.75,7,7.25H0.833V4.333c0-1.917,1.5-3.5,3.417-3.5h11.5c1.917,0,3.417,1.583,3.417,3.5V7.25H13z"/>
<path fill="#828282" d="M6.25,12.333c0,2.083,1.667,3.833,3.75,3.833s3.75-1.75,3.75-3.833S12.083,8.5,10,8.5
	C7.917,8.5,6.25,10.25,6.25,12.333L6.25,12.333z M12.917,12.333c0,1.667-1.333,3-2.917,3s-2.917-1.333-2.917-3s1.333-3,2.917-3
	C11.583,9.333,12.917,10.667,12.917,12.333L12.917,12.333z"/>
</svg>
