<?xml version="1.0" encoding="utf-8"?>
<!-- Generator: Adobe Illustrator 20.0.0, SVG Export Plug-In . SVG Version: 6.00 Build 0)  -->
<svg version="1.1" id="Layer_1" xmlns="http://www.w3.org/2000/svg" xmlns:xlink="http://www.w3.org/1999/xlink" x="0px" y="0px"
	 viewBox="0 0 8.5 12" enable-background="new 0 0 8.5 12" xml:space="preserve">
<path id="XMLID_6_" fill="#828282" d="M7.7,4.3v7h-7v-7H7.7L7.7,4.3z M8.5,3.5H0V12h8.5V3.5L8.5,3.5z"/>
<path id="XMLID_30_" fill="#FFB0B0" d="M3.9,8.6v0.8c0,0.2,0.2,0.4,0.4,0.4c0.2,0,0.4-0.2,0.4-0.4V8.6c0.6-0.2,1.1-0.7,1.1-1.4
	c0-0.8-0.7-1.5-1.5-1.5S2.8,6.4,2.8,7.2C2.8,7.9,3.3,8.4,3.9,8.6L3.9,8.6z M4.3,6.5C4.7,6.5,5,6.8,5,7.2c0,0.4-0.3,0.7-0.7,0.7
	c-0.4,0-0.7-0.3-0.7-0.7C3.5,6.8,3.8,6.5,4.3,6.5L4.3,6.5z"/>
<g id="XMLID_1_">
	<path id="XMLID_3_" fill="#828282" d="M2.1,3.7V2.1C2.1,1,3.1,0,4.2,0c1.2,0,2.1,1,2.1,2.1v1.4L2.1,3.7z M5.6,3.6V2.1
		c0-0.7-0.6-1.3-1.3-1.3S2.9,1.4,2.9,2.1v2.1L5.6,3.6z"/>
</g>
</svg>
