<?xml version="1.0" encoding="utf-8"?>
<!-- Generator: Adobe Illustrator 20.0.0, SVG Export Plug-In . SVG Version: 6.00 Build 0)  -->
<svg version="1.1" id="Layer_1" xmlns="http://www.w3.org/2000/svg" xmlns:xlink="http://www.w3.org/1999/xlink" x="0px" y="0px"
	 viewBox="0 0 10.157 12" style="enable-background:new 0 0 10.157 12;" xml:space="preserve">
<g>
	<path d="M8.308,3.692V3.23C8.308,1.449,6.859,0,5.078,0C3.295,0,1.845,1.449,1.845,3.23v0.462H0V12h10.157
		V3.692H8.308z M2.77,3.23c0-1.271,1.035-2.308,2.308-2.308c1.271,0,2.308,1.037,2.308,2.308v0.462H2.77V3.23z M9.232,11.078H0.924
		V4.616h8.308C9.232,4.616,9.232,11.078,9.232,11.078z"/>
	<path d="M5.078,5.538c-1.019,0-1.846,0.83-1.846,1.846c0,0.859,0.59,1.576,1.384,1.783v0.525
		c0,0.257,0.207,0.462,0.462,0.462c0.254,0,0.462-0.205,0.462-0.462V9.167C6.334,8.96,6.924,8.243,6.924,7.384
		C6.924,6.368,6.096,5.538,5.078,5.538L5.078,5.538z M5.078,8.308c-0.51,0-0.924-0.415-0.924-0.924c0-0.507,0.414-0.922,0.924-0.922
		S6,6.877,6,7.384C6,7.893,5.588,8.308,5.078,8.308L5.078,8.308z"/>
</g>
</svg>
