<?xml version="1.0" encoding="utf-8"?>
<!-- Generator: Adobe Illustrator 20.0.0, SVG Export Plug-In . SVG Version: 6.00 Build 0)  -->
<svg version="1.1" id="Layer_1" xmlns="http://www.w3.org/2000/svg" xmlns:xlink="http://www.w3.org/1999/xlink" x="0px" y="0px"
	 viewBox="0 0 20 24" enable-background="new 0 0 20 24" xml:space="preserve">
<path id="XMLID_2_" fill="#FFB0B0" d="M19.6,2.3h-5.9c0-0.5-0.2-1.3-0.8-1.8C12.6,0.2,12.2,0,11.7,0H7.5C7,0,6.5,0.2,6.2,0.5
	C5.6,1,5.5,1.8,5.4,2.3h-5C0.2,2.3,0,2.4,0,2.6C0,2.8,0.2,3,0.4,3h19.2C19.8,3,20,2.8,20,2.6C20,2.4,19.8,2.3,19.6,2.3L19.6,2.3z
	 M6.8,1C7,0.8,7.2,0.8,7.5,0.8h4.2c0.3,0,0.5,0.1,0.7,0.3c0.3,0.3,0.5,0.9,0.5,1.2H6.3C6.3,1.9,6.5,1.3,6.8,1L6.8,1z"/>
<g id="XMLID_22_">
	<path id="XMLID_49_" fill="#828282" d="M18,4H2l0.1,7.5v11C2,23.4,2.7,24,3.5,24H10v-0.1V24h6.5c0.8,0,1.5-0.6,1.5-1.5v-11V4z
		 M17,22.5c0,0.3-0.2,0.5-0.5,0.5H10H3.5C3.2,23,3,22.8,3,22.5V8.7V5h14v3.7V22.5z"/>
</g>
<path id="XMLID_5_" fill="#FFB0B0" d="M14.6,20.1H5.4c-0.2,0-0.4,0.2-0.4,0.4l0,0c0,0.2,0.2,0.4,0.4,0.4h9.2c0.2,0,0.4-0.2,0.4-0.4
	l0,0C15,20.3,14.8,20.1,14.6,20.1z"/>
<path id="XMLID_6_" fill="#FFB0B0" d="M14.6,18H5.4C5.2,18,5,18.2,5,18.4l0,0c0,0.2,0.2,0.4,0.4,0.4h9.2c0.2,0,0.4-0.2,0.4-0.4l0,0
	C15,18.2,14.8,18,14.6,18z"/>
<path id="XMLID_7_" fill="#FFB0B0" d="M14.6,16.2H5.4c-0.2,0-0.4,0.2-0.4,0.4l0,0C5,16.8,5.2,17,5.4,17h9.2c0.2,0,0.4-0.2,0.4-0.4
	l0,0C15,16.4,14.8,16.2,14.6,16.2z"/>
</svg>
