<?xml version="1.0" encoding="utf-8"?>
<!-- Generator: Adobe Illustrator 20.0.0, SVG Export Plug-In . SVG Version: 6.00 Build 0)  -->
<svg version="1.1" id="Layer_1" xmlns="http://www.w3.org/2000/svg" xmlns:xlink="http://www.w3.org/1999/xlink" x="0px" y="0px"
	 viewBox="0 0 42 25.8" enable-background="new 0 0 42 25.8" xml:space="preserve">
<path display="none" fill="#D8D8D8" d="M40.4,25.7H1.6C0.7,25.7,0,25,0,24.2V1.5C0,0.7,0.7,0,1.6,0h38.9C41.3,0,42,0.7,42,1.5v22.7
	C42,25,41.3,25.7,40.4,25.7z M1.6,0.3c-0.7,0-1.2,0.5-1.2,1.2v22.7c0,0.7,0.5,1.2,1.2,1.2h38.9c0.7,0,1.2-0.5,1.2-1.2V1.5
	c0-0.7-0.5-1.2-1.2-1.2C40.5,0.3,1.6,0.3,1.6,0.3z"/>
<g>
	<g>
		<polygon fill="#0066B2" points="19.3,16.7 17.3,16.7 18.6,9 20.6,9 		"/>
		<path fill="#0066B2" d="M15.6,9l-1.9,5.2l-0.2-1.1l0,0l-0.7-3.4c0,0-0.1-0.7-1-0.7H8.6v0.1c0,0,1,0.2,2.1,0.9l1.8,6.6h2.1L17.8,9
			H15.6z"/>
		<path fill="#0066B2" d="M31.6,16.7h1.9L31.8,9h-1.6c-0.8,0-0.9,0.6-0.9,0.6l-3,7h2.1l0.4-1.1h2.6L31.6,16.7z M29.4,14l1.1-2.9
			L31,14H29.4z"/>
		<path fill="#0066B2" d="M26.4,10.9l0.3-1.6c0,0-0.9-0.3-1.8-0.3c-1,0-3.4,0.4-3.4,2.5c0,2,2.8,2,2.8,3s-2.5,0.8-3.4,0.2l-0.3,1.7
			c0,0,0.9,0.4,2.3,0.4s3.5-0.7,3.5-2.6c0-2-2.8-2.2-2.8-3C23.5,10.3,25.5,10.4,26.4,10.9z"/>
	</g>
	<path fill="#F9A533" d="M13.4,13.2l-0.7-3.4c0,0-0.1-0.7-1-0.7H8.6v0.1c0,0,1.5,0.3,3,1.5C13,11.8,13.4,13.2,13.4,13.2z"/>
</g>
<g>
	<path d="M40.8,25.8H1.2c-0.7,0-1.2-0.5-1.2-1.2V1.2C0,0.5,0.5,0,1.2,0h39.6C41.5,0,42,0.5,42,1.2v23.5
		C42,25.3,41.5,25.8,40.8,25.8z M1.2,0.4c-0.4,0-0.8,0.4-0.8,0.8v23.5c0,0.4,0.4,0.8,0.8,0.8h39.6c0.4,0,0.8-0.4,0.8-0.8V1.2
		c0-0.4-0.4-0.8-0.8-0.8C40.8,0.4,1.2,0.4,1.2,0.4z"/>
</g>
</svg>
